{
  "load": true,
  "objOverrides": {},
  "matOverrides": {
    "BookOutside": {
      "shaderName": "Plasma/Default, alpha test",
      "renderQueue": -1,
      "props": null
    },
    "BookInside": {
      "shaderName": "Plasma/Default, alpha test",
      "renderQueue": -1,
      "props": null
    }
  },
  "layers": {}
}