{
  "load": true,
  "objOverrides": {},
  "matOverrides": {
    "WoodenDoorCloset": {
      "shaderName": "Plasma/Default",
      "renderQueue": -1,
      "props": null
    },
    "m_2611": {
      "shaderName": "Plasma/Default",
      "renderQueue": -1,
      "props": null
    },
    "m_2612": {
      "shaderName": "Plasma/Default",
      "renderQueue": -1,
      "props": null
    },
    "WoodenDoorCloset0": {
      "shaderName": "Plasma/Default, use vcol for realtime lights",
      "renderQueue": -1,
      "props": null
    },
    "m_26110": {
      "shaderName": "Plasma/Default, use vcol for realtime lights",
      "renderQueue": -1,
      "props": null
    },
    "m_26120": {
      "shaderName": "Plasma/Default, use vcol for realtime lights",
      "renderQueue": -1,
      "props": null
    },
    "m_14151": {
      "shaderName": "Plasma/Default, alpha blend, zoffset",
      "renderQueue": -1,
      "props": null
    },
    "TotallyTransparent": {
      "shaderName": "Plasma/Null",
      "renderQueue": -1,
      "props": null
    },
    "BlueMarble": {
      "shaderName": "Plasma/Glow",
      "renderQueue": -1,
      "props": null
    },
    "Buttetop": {
      "shaderName": "Plasma/Default uv 1",
      "renderQueue": -1,
      "props": null
    },
    "ButteDecal": {
      "shaderName": "Plasma/Default, alpha blend, zoffs, uv1 u blend",
      "renderQueue": -1,
      "props": null
    },
    "ButteBtm": {
      "shaderName": "Plasma/Default uv1, uv2 u blend",
      "renderQueue": -1,
      "props": null
    },
    "ButteDecal0": {
      "shaderName": "Plasma/Default",
      "renderQueue": -1,
      "props": null
    },
    "Clouds4Camera": {
      "shaderName": "Plasma/Ages/Personal/Clouds4Camera",
      "renderQueue": -1,
      "props": null
    },
    "IslandButte_2": {
      "shaderName": "Plasma/Default",
      "renderQueue": -1,
      "props": null
    },
    "m_7710": {
      "shaderName": "Plasma/Default, alpha blend, zoffs, uv2 u blend",
      "renderQueue": -1,
      "props": null
    },
    "m_771": {
      "shaderName": "Plasma/Default, uv1 u blend",
      "renderQueue": -1,
      "props": null
    },
    "dock": {
      "shaderName": "Plasma/Default",
      "renderQueue": -1,
      "props": null
    },
    "LibraryLogs": {
      "shaderName": "Plasma/Default",
      "renderQueue": -1,
      "props": null
    },
    "WoodenDoor": {
      "shaderName": "Plasma/Default",
      "renderQueue": -1,
      "props": null
    },
    "clkDoorOpenExt_DefMat": {
      "shaderName": "Plasma/Default",
      "renderQueue": -1,
      "props": null
    },
    "Butterfly": {
      "shaderName": "Plasma/Default, alpha test (double sided)",
      "renderQueue": -1,
      "props": null
    },
    "BookCovers0": {
      "shaderName": "Plasma/Default",
      "renderQueue": -1,
      "props": null
    },
    "BlackBoxForCredits": {
      "shaderName": "Plasma/Default",
      "renderQueue": -1,
      "props": null
    },
    "EndingImage": {
      "shaderName": "Plasma/Default",
      "renderQueue": -1,
      "props": null
    },
    "FissureBeams": {
      "shaderName": "Plasma/Default, alpha blend",
      "renderQueue": -1,
      "props": null
    },
    "IslandButte_1": {
      "shaderName": "Plasma/Default UV1, overlay uv1",
      "renderQueue": -1,
      "props": null
    },
    "IslandButte_4": {
      "shaderName": "Plasma/Default",
      "renderQueue": -1,
      "props": null
    },
    "IslandButte_5": {
      "shaderName": "Plasma/Ages/Personal/IslandButte_5",
      "renderQueue": -1,
      "props": null
    },
    "IslandButte_7": {
      "shaderName": "Plasma/Ages/Personal/IslandButte_7",
      "renderQueue": -1,
      "props": null
    },
    "mFissureCarvingBig": {
      "shaderName": "Plasma/Default, alpha blend",
      "renderQueue": -1,
      "props": null
    },
    "mFissureCarvingMedium": {
      "shaderName": "Plasma/Default, alpha blend",
      "renderQueue": -1,
      "props": null
    },
    "mFissureCarvingSmall": {
      "shaderName": "Plasma/Default, alpha blend",
      "renderQueue": -1,
      "props": null
    },
    "FissureDecalBig0": {
      "shaderName": "Plasma/Default, alpha blend, zoffset",
      "renderQueue": -1,
      "props": null
    },
    "FissureDecalGlow": {
      "shaderName": "Plasma/Default, alpha blend",
      "renderQueue": -1,
      "props": null
    },
    "FissureDecalMedium": {
      "shaderName": "Plasma/Default, alpha blend, zoffset",
      "renderQueue": -1,
      "props": null
    },
    "FissureDecalSmall0": {
      "shaderName": "Plasma/Default, alpha blend, zoffset",
      "renderQueue": -1,
      "props": null
    },
    "FissureDecalVerySmall": {
      "shaderName": "Plasma/Default, alpha blend, zoffset",
      "renderQueue": -1,
      "props": null
    },
    "m_2904": {
      "shaderName": "Plasma/Default",
      "renderQueue": -1,
      "props": null
    },
    "m_2902": {
      "shaderName": "Plasma/Default",
      "renderQueue": -1,
      "props": null
    },
    "Fogcloud-1": {
      "shaderName": "Plasma/Ages/Personal/Fogcloud-1",
      "renderQueue": -1,
      "props": null
    },
    "leaf01": {
      "shaderName": "Plasma/Ages/Personal/Alpha test, higher cutout",
      "renderQueue": -1,
      "props": null
    },
    "ivy": {
      "shaderName": "Plasma/Default, alpha blend, zoffset, rot -90",
      "renderQueue": -1,
      "props": null
    },
    "m_761": {
      "shaderName": "Plasma/Default",
      "renderQueue": -1,
      "props": null
    },
    "bigWall": {
      "shaderName": "Plasma/Default, alpha blend, zoffs, uv1 u blend",
      "renderQueue": -1,
      "props": null
    },
    "Rug": {
      "shaderName": "Plasma/Default, alpha blend, zoffset",
      "renderQueue": -1,
      "props": null
    },
    "m_762": {
      "shaderName": "Plasma/Ages/Personal/Alpha test, higher cutout (no DS)",
      "renderQueue": -1,
      "props": null
    },
    "RoofStraw": {
      "shaderName": "Plasma/Ages/Personal/Alpha test, higher cutout (no DS)",
      "renderQueue": -1,
      "props": null
    },
    "1_-_Default": {
      "shaderName": "Plasma/Default",
      "renderQueue": -1,
      "props": null
    },
    "PostBaseDirt": {
      "shaderName": "Plasma/Default uv1, uv2 u blend",
      "renderQueue": -1,
      "props": null
    },
    "KI-Logo": {
      "shaderName": "Plasma/Default, alpha blend",
      "renderQueue": -1,
      "props": null
    },
    "KI-LogoGlow": {
      "shaderName": "Plasma/Glow",
      "renderQueue": -1,
      "props": null
    },
    "ImagerScreenDynamic02": {
      "shaderName": "Plasma/Ages/Personal/Imager, dynamic",
      "renderQueue": 3040,
      "props": null
    },
    "m_383": {
      "shaderName": "Plasma/Ages/Personal/Imager",
      "renderQueue": 3050,
      "props": null
    },
    "ivyLeaf": {
      "shaderName": "Plasma/Ages/Personal/Alpha test, higher cutout",
      "renderQueue": -1,
      "props": null
    },
    "m_7140": {
      "shaderName": "Plasma/Default",
      "renderQueue": -1,
      "props": null
    },
    "Lamp_Flare": {
      "shaderName": "Plasma/Glow",
      "renderQueue": -1,
      "props": null
    },
    "Lechugilla": {
      "shaderName": "Plasma/Default",
      "renderQueue": -1,
      "props": null
    },
    "3_-_Default0": {
      "shaderName": "Plasma/Default",
      "renderQueue": -1,
      "props": null
    },
    "m_798": {
      "shaderName": "Plasma/Default, alpha blend, zoffs, uv1 u blend",
      "renderQueue": -1,
      "props": null
    },
    "m_779": {
      "shaderName": "Plasma/Default, alpha blend, zoffs, uv1 u blend",
      "renderQueue": -1,
      "props": null
    },
    "YeeshaFloorEng": {
      "shaderName": "Plasma/Default, alpha blend",
      "renderQueue": -1,
      "props": null
    },
    "m_786": {
      "shaderName": "Plasma/Default",
      "renderQueue": -1,
      "props": null
    },
    "MoonRoundOuter": {
      "shaderName": "Plasma/Default, alpha blend, no fog",
      "renderQueue": -1,
      "props": null
    },
    "MoonRound": {
      "shaderName": "Plasma/Ages/Personal/MoonAndStars",
      "renderQueue": -1,
      "props": null
    },
    "MusicalInstrmnt0": {
      "shaderName": "Plasma/Default",
      "renderQueue": -1,
      "props": null
    },
    "3_-_Default1": {
      "shaderName": "Plasma/Default",
      "renderQueue": -1,
      "props": null
    },
    "MidNeedles0": {
      "shaderName": "Plasma/Default, alpha test (double sided), less intense",
      "renderQueue": -1,
      "props": null
    },
    "TopNeedles0": {
      "shaderName": "Plasma/Default, alpha test (double sided), less intense",
      "renderQueue": -1,
      "props": null
    },
    "ThinNeedles0": {
      "shaderName": "Plasma/Default, alpha test (double sided), less intense",
      "renderQueue": -1,
      "props": null
    },
    "Bark": {
      "shaderName": "Plasma/Default",
      "renderQueue": -1,
      "props": null
    },
    "ThinNeedles1": {
      "shaderName": "Plasma/Default, alpha test (double sided), less intense",
      "renderQueue": -1,
      "props": null
    },
    "TopNeedles1": {
      "shaderName": "Plasma/Default, alpha test (double sided), less intense",
      "renderQueue": -1,
      "props": null
    },
    "NeedlesTops2": {
      "shaderName": "Plasma/Default, alpha test (double sided), less intense",
      "renderQueue": -1,
      "props": null
    },
    "m_774": {
      "shaderName": "Plasma/Default, alpha test (double sided), less intense",
      "renderQueue": -1,
      "props": null
    },
    "PoolStone_2": {
      "shaderName": "Plasma/Default",
      "renderQueue": -1,
      "props": null
    },
    "PoolStone_3": {
      "shaderName": "Plasma/Default, overlay uv0 blended uv1 u",
      "renderQueue": -1,
      "props": null
    },
    "RedMarble": {
      "shaderName": "Plasma/Glow",
      "renderQueue": -1,
      "props": null
    },
    "RopePost": {
      "shaderName": "Plasma/Default",
      "renderQueue": -1,
      "props": null
    },
    "LibraryLogs0": {
      "shaderName": "Plasma/Default",
      "renderQueue": -1,
      "props": null
    },
    "WoodenDoor0": {
      "shaderName": "Plasma/Default",
      "renderQueue": -1,
      "props": null
    },
    "ShelfATrayCLK01_DefMat": {
      "shaderName": "Plasma/Default",
      "renderQueue": -1,
      "props": null
    },
    "ZandiBooks": {
      "shaderName": "Plasma/Default",
      "renderQueue": -1,
      "props": null
    },
    "BookCovers": {
      "shaderName": "Plasma/Default",
      "renderQueue": -1,
      "props": null
    },
    "BookTray01": {
      "shaderName": "Plasma/Default",
      "renderQueue": -1,
      "props": null
    },
    "TraySide0": {
      "shaderName": "Plasma/Default",
      "renderQueue": -1,
      "props": null
    },
    "TraySide": {
      "shaderName": "Plasma/Default",
      "renderQueue": -1,
      "props": null
    },
    "book15Mat": {
      "shaderName": "Plasma/Default",
      "renderQueue": -1,
      "props": null
    },
    "book16Mat": {
      "shaderName": "Plasma/Default",
      "renderQueue": -1,
      "props": null
    },
    "book17Mat": {
      "shaderName": "Plasma/Default",
      "renderQueue": -1,
      "props": null
    },
    "book18Mat": {
      "shaderName": "Plasma/Default",
      "renderQueue": -1,
      "props": null
    },
    "book19Mat": {
      "shaderName": "Plasma/Default",
      "renderQueue": -1,
      "props": null
    },
    "book20Mat": {
      "shaderName": "Plasma/Default",
      "renderQueue": -1,
      "props": null
    },
    "book21Mat": {
      "shaderName": "Plasma/Default",
      "renderQueue": -1,
      "props": null
    },
    "book22Mat": {
      "shaderName": "Plasma/Default",
      "renderQueue": -1,
      "props": null
    },
    "book23Mat": {
      "shaderName": "Plasma/Default",
      "renderQueue": -1,
      "props": null
    },
    "book24Mat": {
      "shaderName": "Plasma/Default",
      "renderQueue": -1,
      "props": null
    },
    "book25Mat": {
      "shaderName": "Plasma/Default",
      "renderQueue": -1,
      "props": null
    },
    "book26Mat": {
      "shaderName": "Plasma/Default",
      "renderQueue": -1,
      "props": null
    },
    "book27Mat": {
      "shaderName": "Plasma/Default",
      "renderQueue": -1,
      "props": null
    },
    "book28Mat": {
      "shaderName": "Plasma/Default",
      "renderQueue": -1,
      "props": null
    },
    "book29Mat": {
      "shaderName": "Plasma/Default",
      "renderQueue": -1,
      "props": null
    },
    "book30Mat": {
      "shaderName": "Plasma/Default",
      "renderQueue": -1,
      "props": null
    },
    "book31Mat": {
      "shaderName": "Plasma/Default",
      "renderQueue": -1,
      "props": null
    },
    "book32Mat": {
      "shaderName": "Plasma/Default",
      "renderQueue": -1,
      "props": null
    },
    "book33Mat": {
      "shaderName": "Plasma/Default",
      "renderQueue": -1,
      "props": null
    },
    "book34Mat": {
      "shaderName": "Plasma/Default",
      "renderQueue": -1,
      "props": null
    },
    "book35Mat": {
      "shaderName": "Plasma/Default",
      "renderQueue": -1,
      "props": null
    },
    "book36Mat": {
      "shaderName": "Plasma/Default",
      "renderQueue": -1,
      "props": null
    },
    "Hinge-Hand": {
      "shaderName": "Plasma/Default",
      "renderQueue": -1,
      "props": null
    },
    "Hinge-DRC": {
      "shaderName": "Plasma/Default",
      "renderQueue": -1,
      "props": null
    },
    "Hinge-Shell": {
      "shaderName": "Plasma/Default",
      "renderQueue": -1,
      "props": null
    },
    "Hinge-blank": {
      "shaderName": "Plasma/Default",
      "renderQueue": -1,
      "props": null
    },
    "Sky": {
      "shaderName": "Plasma/Default",
      "renderQueue": -1,
      "props": null
    },
    "Logs": {
      "shaderName": "Plasma/Default",
      "renderQueue": -1,
      "props": null
    },
    "MusicalInstrmnt": {
      "shaderName": "Plasma/Default",
      "renderQueue": -1,
      "props": null
    },
    "wood": {
      "shaderName": "Plasma/Default",
      "renderQueue": -1,
      "props": null
    },
    "m_14145_2": {
      "shaderName": "Plasma/Default uv 1",
      "renderQueue": -1,
      "props": null
    },
    "m_14145_3": {
      "shaderName": "Plasma/Default, overlay uv1 blended uv2 u",
      "renderQueue": -1,
      "props": null
    },
    "m_7620": {
      "shaderName": "Plasma/Default",
      "renderQueue": -1,
      "props": null
    },
    "m_7141": {
      "shaderName": "Plasma/Default",
      "renderQueue": -1,
      "props": null
    },
    "Logs0": {
      "shaderName": "Plasma/Default",
      "renderQueue": -1,
      "props": null
    },
    "ShroomSunRoundOuter": {
      "shaderName": "Plasma/Default, alpha blend, no fog",
      "renderQueue": -1,
      "props": null
    },
    "ShroomSunRound": {
      "shaderName": "Plasma/Default, alpha blend, no fog",
      "renderQueue": -1,
      "props": null
    },
    "IslandButte_3": {
      "shaderName": "Plasma/Ages/Personal/IslandButte_3",
      "renderQueue": -1,
      "props": null
    },
    "IslandButte_6": {
      "shaderName": "Plasma/Default, overlay uv1 blended uv2 v",
      "renderQueue": -1,
      "props": null
    },
    "FissureDecalBig": {
      "shaderName": "Plasma/Default, alpha blend, zoffset",
      "renderQueue": -1,
      "props": null
    },
    "FissureDecalSmall": {
      "shaderName": "Plasma/Default, alpha blend, zoffset",
      "renderQueue": -1,
      "props": null
    },
    "m_2888": {
      "shaderName": "Plasma/Default, alpha blend, zoffset",
      "renderQueue": -1,
      "props": null
    },
    "m_2609": {
      "shaderName": "Plasma/Default, alpha blend, zoffs, uv1 u blend",
      "renderQueue": -1,
      "props": null
    },
    "grassDarkGreen_1": {
      "shaderName": "Plasma/Ages/Personal/grassDarkGreen_1",
      "renderQueue": -1,
      "props": null
    },
    "grassDarkGreen_3": {
      "shaderName": "Plasma/Ages/Personal/grassDarkGreen_3",
      "renderQueue": -1,
      "props": null
    },
    "m_14153": {
      "shaderName": "Plasma/Ages/Personal/m_14153",
      "renderQueue": -1,
      "props": null
    },
    "m_14150": {
      "shaderName": "Plasma/Default, alpha blend, zoffs, uv1 u blend",
      "renderQueue": -1,
      "props": null
    },
    "Waterfall": {
      "shaderName": "Plasma/Ages/Personal/Waterfall",
      "renderQueue": -1,
      "props": null
    },
    "Waterfall1_1": {
      "shaderName": "Plasma/Ages/Personal/Waterfall1_1",
      "renderQueue": -1,
      "props": null
    },
    "Waterfall1_3": {
      "shaderName": "Plasma/Ages/Personal/Waterfall1_3",
      "renderQueue": -1,
      "props": null
    },
    "Waterfall1_7": {
      "shaderName": "Plasma/Ages/Personal/Waterfall1_3",
      "renderQueue": -1,
      "props": null
    },
    "WaterfallReflect": {
      "shaderName": "Plasma/Ages/Personal/WaterfallReflect",
      "renderQueue": -1,
      "props": null
    },
    "waterfallNew": {
      "shaderName": "Plasma/Ages/Personal/waterfallNew",
      "renderQueue": -1,
      "props": null
    },
    "WhiteMarble": {
      "shaderName": "Plasma/Glow",
      "renderQueue": -1,
      "props": null
    },
    "m_2634": {
      "shaderName": "Plasma/Default",
      "renderQueue": -1,
      "props": null
    },
    "m_26340": {
      "shaderName": "Plasma/Default",
      "renderQueue": -1,
      "props": null
    },
    "m_2635": {
      "shaderName": "Plasma/Default",
      "renderQueue": -1,
      "props": null
    },
    "m_2622": {
      "shaderName": "Plasma/Default",
      "renderQueue": -1,
      "props": null
    },
    "m_2636": {
      "shaderName": "Plasma/Default",
      "renderQueue": -1,
      "props": null
    },
    "m_2637": {
      "shaderName": "Plasma/Default",
      "renderQueue": -1,
      "props": null
    },
    "m_2638": {
      "shaderName": "Plasma/Default",
      "renderQueue": -1,
      "props": null
    },
    "m_2838": {
      "shaderName": "Plasma/Default",
      "renderQueue": -1,
      "props": null
    },
    "m_464": {
      "shaderName": "Plasma/Default",
      "renderQueue": -1,
      "props": null
    },
    "m_465": {
      "shaderName": "Plasma/Default",
      "renderQueue": -1,
      "props": null
    },
    "m_466": {
      "shaderName": "Plasma/Default",
      "renderQueue": -1,
      "props": null
    },
    "m_2861": {
      "shaderName": "Plasma/Default",
      "renderQueue": -1,
      "props": null
    },
    "m_2837": {
      "shaderName": "Plasma/Default, alpha blend",
      "renderQueue": -1,
      "props": null
    },
    "JCpalmGlowGreen": {
      "shaderName": "Plasma/Ages/Personal/Hand glow",
      "renderQueue": -1,
      "props": null
    },
    "JCpalmGlowGreen0": {
      "shaderName": "Plasma/Ages/Personal/Hand glow",
      "renderQueue": -1,
      "props": null
    },
    "JCpalmGlowGreen1": {
      "shaderName": "Plasma/Ages/Personal/Hand glow",
      "renderQueue": -1,
      "props": null
    },
    "JCpalmGlowGreen2": {
      "shaderName": "Plasma/Ages/Personal/Hand glow",
      "renderQueue": -1,
      "props": null
    },
    "JCpalmGlowGreen3": {
      "shaderName": "Plasma/Ages/Personal/Hand glow",
      "renderQueue": -1,
      "props": null
    },
    "JCpalmGlowGreen4": {
      "shaderName": "Plasma/Ages/Personal/Hand glow",
      "renderQueue": -1,
      "props": null
    },
    "JCpalmGlowGreen5": {
      "shaderName": "Plasma/Ages/Personal/Hand glow",
      "renderQueue": -1,
      "props": null
    },
    "JCpalmGlowGreen6": {
      "shaderName": "Plasma/Ages/Personal/Hand glow",
      "renderQueue": -1,
      "props": null
    },
    "m_2851": {
      "shaderName": "Plasma/Ages/Personal/Bahro Pole",
      "renderQueue": -1,
      "props": null
    },
    "m_2853": {
      "shaderName": "Plasma/Default",
      "renderQueue": -1,
      "props": null
    },
    "bone": {
      "shaderName": "Plasma/Default, rot-90",
      "renderQueue": -1,
      "props": null
    },
    "m_2859": {
      "shaderName": "Plasma/Default",
      "renderQueue": -1,
      "props": null
    },
    "JCpalmGlowBlue": {
      "shaderName": "Plasma/Ages/Personal/Hand glow",
      "renderQueue": -1,
      "props": null
    },
    "JCpalmGlowBlue6": {
      "shaderName": "Plasma/Ages/Personal/Hand glow",
      "renderQueue": -1,
      "props": null
    },
    "JCpalmGlowBlue5": {
      "shaderName": "Plasma/Ages/Personal/Hand glow",
      "renderQueue": -1,
      "props": null
    },
    "JCpalmGlowBlue4": {
      "shaderName": "Plasma/Ages/Personal/Hand glow",
      "renderQueue": -1,
      "props": null
    },
    "JCpalmGlowBlue3": {
      "shaderName": "Plasma/Ages/Personal/Hand glow",
      "renderQueue": -1,
      "props": null
    },
    "JCpalmGlowBlue2": {
      "shaderName": "Plasma/Ages/Personal/Hand glow",
      "renderQueue": -1,
      "props": null
    },
    "JCpalmGlowBlue1": {
      "shaderName": "Plasma/Ages/Personal/Hand glow",
      "renderQueue": -1,
      "props": null
    },
    "JCpalmGlowBlue0": {
      "shaderName": "Plasma/Ages/Personal/Hand glow",
      "renderQueue": -1,
      "props": null
    },
    "JCpalmGlowPurple": {
      "shaderName": "Plasma/Ages/Personal/Hand glow",
      "renderQueue": -1,
      "props": null
    },
    "JCpalmGlowPurple6": {
      "shaderName": "Plasma/Ages/Personal/Hand glow",
      "renderQueue": -1,
      "props": null
    },
    "JCpalmGlowPurple5": {
      "shaderName": "Plasma/Ages/Personal/Hand glow",
      "renderQueue": -1,
      "props": null
    },
    "JCpalmGlowPurple4": {
      "shaderName": "Plasma/Ages/Personal/Hand glow",
      "renderQueue": -1,
      "props": null
    },
    "JCpalmGlowPurple3": {
      "shaderName": "Plasma/Ages/Personal/Hand glow",
      "renderQueue": -1,
      "props": null
    },
    "JCpalmGlowPurple2": {
      "shaderName": "Plasma/Ages/Personal/Hand glow",
      "renderQueue": -1,
      "props": null
    },
    "JCpalmGlowPurple1": {
      "shaderName": "Plasma/Ages/Personal/Hand glow",
      "renderQueue": -1,
      "props": null
    },
    "JCpalmGlowPurple0": {
      "shaderName": "Plasma/Ages/Personal/Hand glow",
      "renderQueue": -1,
      "props": null
    },
    "m_2860": {
      "shaderName": "Plasma/Default",
      "renderQueue": -1,
      "props": null
    },
    "JCpalmGlowOrange": {
      "shaderName": "Plasma/Ages/Personal/Hand glow",
      "renderQueue": -1,
      "props": null
    },
    "JCpalmGlowOrange6": {
      "shaderName": "Plasma/Ages/Personal/Hand glow",
      "renderQueue": -1,
      "props": null
    },
    "JCpalmGlowOrange5": {
      "shaderName": "Plasma/Ages/Personal/Hand glow",
      "renderQueue": -1,
      "props": null
    },
    "JCpalmGlowOrange4": {
      "shaderName": "Plasma/Ages/Personal/Hand glow",
      "renderQueue": -1,
      "props": null
    },
    "JCpalmGlowOrange3": {
      "shaderName": "Plasma/Ages/Personal/Hand glow",
      "renderQueue": -1,
      "props": null
    },
    "JCpalmGlowOrange2": {
      "shaderName": "Plasma/Ages/Personal/Hand glow",
      "renderQueue": -1,
      "props": null
    },
    "JCpalmGlowOrange1": {
      "shaderName": "Plasma/Ages/Personal/Hand glow",
      "renderQueue": -1,
      "props": null
    },
    "JCpalmGlowOrange0": {
      "shaderName": "Plasma/Ages/Personal/Hand glow",
      "renderQueue": -1,
      "props": null
    },
    "m_2862": {
      "shaderName": "Plasma/Default",
      "renderQueue": -1,
      "props": null
    },
    "YellowMarble": {
      "shaderName": "Plasma/Glow",
      "renderQueue": -1,
      "props": null
    },
    "nbCementMoss": {
      "shaderName": "Plasma/Default",
      "renderQueue": -1,
      "props": null
    },
    "grdnLampPost": {
      "shaderName": "Plasma/Default",
      "renderQueue": -1,
      "props": null
    },
    "ClockArc": {
      "shaderName": "Plasma/Default",
      "renderQueue": -1,
      "props": null
    },
    "ClockLens": {
      "shaderName": "Plasma/Ages/Personal/ClockLens",
      "renderQueue": -1,
      "props": null
    },
    "Top_Bottom": {
      "shaderName": "Plasma/Default",
      "renderQueue": -1,
      "props": null
    },
    "Numbers": {
      "shaderName": "Plasma/Default",
      "renderQueue": -1,
      "props": null
    },
    "m_14144": {
      "shaderName": "Plasma/Default",
      "renderQueue": -1,
      "props": null
    },
    "m_714": {
      "shaderName": "Plasma/Default",
      "renderQueue": -1,
      "props": null
    },
    "LechugillaWeed": {
      "shaderName": "Plasma/Default",
      "renderQueue": -1,
      "props": null
    },
    "m_731": {
      "shaderName": "Plasma/Default, alpha blend, zoffset",
      "renderQueue": -1,
      "props": null
    },
    "m_562": {
      "shaderName": "Plasma/Default, alpha test (double sided), VCol for RT",
      "renderQueue": -1,
      "props": null
    },
    "m_5620": {
      "shaderName": "Plasma/Default, alpha test (double sided), VCol for RT",
      "renderQueue": -1,
      "props": null
    },
    "ThinNeedles": {
      "shaderName": "Plasma/Default, alpha test (double sided), less intense",
      "renderQueue": -1,
      "props": null
    },
    "3_-_Default": {
      "shaderName": "Plasma/Default",
      "renderQueue": -1,
      "props": null
    },
    "MidNeedles": {
      "shaderName": "Plasma/Default, alpha test (double sided), less intense",
      "renderQueue": -1,
      "props": null
    },
    "TopNeedles": {
      "shaderName": "Plasma/Default, alpha test (double sided), less intense",
      "renderQueue": -1,
      "props": null
    },
    "LechugillaWeed0": {
      "shaderName": "Plasma/Default",
      "renderQueue": -1,
      "props": null
    },
    "m_2185": {
      "shaderName": "Plasma/Default, alpha test (double sided), less intense",
      "renderQueue": -1,
      "props": null
    },
    "m_5621": {
      "shaderName": "Plasma/Default, alpha test (double sided), VCol for RT",
      "renderQueue": -1,
      "props": null
    },
    "m_5622": {
      "shaderName": "Plasma/Default, alpha test (double sided), VCol for RT",
      "renderQueue": -1,
      "props": null
    },
    "Hinge": {
      "shaderName": "Plasma/Default",
      "renderQueue": -1,
      "props": null
    },
    "Hinge_NoShare": {
      "shaderName": "Plasma/Default",
      "renderQueue": -1,
      "props": null
    },
    "m_4650": {
      "shaderName": "Plasma/Default",
      "renderQueue": -1,
      "props": null
    },
    "NumbersForAnimatingLens": {
      "shaderName": "Plasma/Default",
      "renderQueue": -1,
      "props": null
    },
    "Rock": {
      "shaderName": "Plasma/Default",
      "renderQueue": -1,
      "props": null
    },
    "m_14159": {
      "shaderName": "Plasma/Default",
      "renderQueue": -1,
      "props": null
    },
    "m_26360": {
      "shaderName": "Plasma/Default",
      "renderQueue": -1,
      "props": null
    },
    "m_26370": {
      "shaderName": "Plasma/Default",
      "renderQueue": -1,
      "props": null
    },
    "m_26380": {
      "shaderName": "Plasma/Default",
      "renderQueue": -1,
      "props": null
    },
    "m_141590": {
      "shaderName": "Plasma/Default",
      "renderQueue": -1,
      "props": null
    },
    "m_141591": {
      "shaderName": "Plasma/Ages/Personal/m_141591",
      "renderQueue": -1,
      "props": null
    },
    "JCpalmGlowCleft": {
      "shaderName": "Plasma/Ages/Personal/Hand glow",
      "renderQueue": -1,
      "props": null
    },
    "JCpalmGlowCleft0": {
      "shaderName": "Plasma/Ages/Personal/Hand glow",
      "renderQueue": -1,
      "props": null
    },
    "JCpalmGlowCleft1": {
      "shaderName": "Plasma/Ages/Personal/Hand glow",
      "renderQueue": -1,
      "props": null
    },
    "JCpalmGlowCleft2": {
      "shaderName": "Plasma/Ages/Personal/Hand glow",
      "renderQueue": -1,
      "props": null
    },
    "JCpalmGlowCleft3": {
      "shaderName": "Plasma/Ages/Personal/Hand glow",
      "renderQueue": -1,
      "props": null
    },
    "JCpalmGlowCleft4": {
      "shaderName": "Plasma/Ages/Personal/Hand glow",
      "renderQueue": -1,
      "props": null
    },
    "JCpalmGlowCleft5": {
      "shaderName": "Plasma/Ages/Personal/Hand glow",
      "renderQueue": -1,
      "props": null
    },
    "JCpalmGlowCleft6": {
      "shaderName": "Plasma/Ages/Personal/Hand glow",
      "renderQueue": -1,
      "props": null
    },
    "m_2862a": {
      "shaderName": "Plasma/Default",
      "renderQueue": -1,
      "props": null
    },
    "m_873": {
      "shaderName": "Plasma/Default",
      "renderQueue": -1,
      "props": null
    },
    "SkyStormy": {
      "shaderName": "Plasma/Ages/Personal/SkyStormy",
      "renderQueue": -1,
      "props": null
    },
    "Arc02": {
      "shaderName": "Plasma/Glow",
      "renderQueue": -1,
      "props": null
    },
    "Arc03": {
      "shaderName": "Plasma/Glow",
      "renderQueue": -1,
      "props": null
    },
    "Arc04": {
      "shaderName": "Plasma/Glow",
      "renderQueue": -1,
      "props": null
    },
    "Arc01": {
      "shaderName": "Plasma/Glow",
      "renderQueue": -1,
      "props": null
    },
    "Arc05": {
      "shaderName": "Plasma/Glow",
      "renderQueue": -1,
      "props": null
    },
    "m_14168": {
      "shaderName": "Plasma/Default",
      "renderQueue": -1,
      "props": null
    },
    "treeYellow": {
      "shaderName": "Plasma/Default, alpha test (double sided), less intense",
      "renderQueue": -1,
      "props": null
    },
    "MapleSprite": {
      "shaderName": "Plasma/Default, alpha test (double sided), less intense",
      "renderQueue": -1,
      "props": null
    },
    "m_14169": {
      "shaderName": "Plasma/Default, alpha blend, zoffs, uv1 u blend",
      "renderQueue": -1,
      "props": null
    },
    "birdEye": {
      "shaderName": "Plasma/Default",
      "renderQueue": -1,
      "props": null
    },
    "wing": {
      "shaderName": "Plasma/Default",
      "renderQueue": -1,
      "props": null
    },
    "m_27": {
      "shaderName": "Plasma/Default",
      "renderQueue": -1,
      "props": null
    },
    "m_55": {
      "shaderName": "Plasma/Default",
      "renderQueue": -1,
      "props": null
    },
    "m_14173": {
      "shaderName": "Plasma/Ages/Personal/m_141731",
      "renderQueue": -1,
      "props": null
    },
    "m_141730": {
      "shaderName": "Plasma/Ages/Personal/m_141735",
      "renderQueue": -1,
      "props": null
    },
    "m_14189": {
      "shaderName": "Plasma/Default",
      "renderQueue": -1,
      "props": null
    },
    "m_14172": {
      "shaderName": "Plasma/Default",
      "renderQueue": -1,
      "props": null
    },
    "BahroBridge1": {
      "shaderName": "Plasma/Default",
      "renderQueue": -1,
      "props": null
    },
    "m_14195": {
      "shaderName": "Plasma/Default",
      "renderQueue": -1,
      "props": null
    },
    "bone0": {
      "shaderName": "Plasma/Default, rot-90",
      "renderQueue": -1,
      "props": null
    },
    "m_14194": {
      "shaderName": "Plasma/Default",
      "renderQueue": -1,
      "props": null
    },
    "BahroBridge2": {
      "shaderName": "Plasma/Default",
      "renderQueue": -1,
      "props": null
    },
    "m_141731": {
      "shaderName": "Plasma/Ages/Personal/m_141731",
      "renderQueue": -1,
      "props": null
    },
    "m_141732": {
      "shaderName": "Plasma/Ages/Personal/m_141735",
      "renderQueue": -1,
      "props": null
    },
    "m_141733": {
      "shaderName": "Plasma/Default",
      "renderQueue": -1,
      "props": null
    },
    "m_14209": {
      "shaderName": "Plasma/Default, alpha blend",
      "renderQueue": -1,
      "props": null
    },
    "StoneFlare01": {
      "shaderName": "Plasma/Glow",
      "renderQueue": -1,
      "props": null
    },
    "m_14199": {
      "shaderName": "Plasma/Default",
      "renderQueue": -1,
      "props": null
    },
    "m_141990": {
      "shaderName": "Plasma/Default uv 1",
      "renderQueue": -1,
      "props": null
    },
    "m_14198": {
      "shaderName": "Plasma/Default, alpha blend, zoffs, uv2 u blend",
      "renderQueue": -1,
      "props": null
    },
    "StoneFlare02": {
      "shaderName": "Plasma/Glow",
      "renderQueue": -1,
      "props": null
    },
    "StoneFlare03": {
      "shaderName": "Plasma/Glow",
      "renderQueue": -1,
      "props": null
    },
    "StoneFlare04": {
      "shaderName": "Plasma/Glow",
      "renderQueue": -1,
      "props": null
    },
    "StoneFlare05": {
      "shaderName": "Plasma/Glow",
      "renderQueue": -1,
      "props": null
    },
    "StoneFlare07": {
      "shaderName": "Plasma/Glow",
      "renderQueue": -1,
      "props": null
    },
    "StoneFlare08": {
      "shaderName": "Plasma/Glow",
      "renderQueue": -1,
      "props": null
    },
    "m_141734": {
      "shaderName": "Plasma/Ages/Personal/m_141735",
      "renderQueue": -1,
      "props": null
    },
    "GrassReal1": {
      "shaderName": "Plasma/Default, alpha test (double sided), less intense",
      "renderQueue": -1,
      "props": null
    },
    "m_141735": {
      "shaderName": "Plasma/Ages/Personal/m_141735",
      "renderQueue": -1,
      "props": null
    },
    "Bulb": {
      "shaderName": "Plasma/Default",
      "renderQueue": -1,
      "props": null
    },
    "Leaf": {
      "shaderName": "Plasma/Default, double sided",
      "renderQueue": -1,
      "props": null
    },
    "Body": {
      "shaderName": "Plasma/Default",
      "renderQueue": -1,
      "props": null
    },
    "m_141736": {
      "shaderName": "Plasma/Ages/Personal/m_141735",
      "renderQueue": -1,
      "props": null
    },
    "CalendarStoneGlow": {
      "shaderName": "Plasma/Default, alpha blend",
      "renderQueue": -1,
      "props": null
    },
    "SparkHole": {
      "shaderName": "Plasma/Ages/Personal/SparkHole",
      "renderQueue": -1,
      "props": null
    },
    "FireWorkFlare": {
      "shaderName": "Plasma/Glow",
      "renderQueue": -1,
      "props": null
    },
    "FireworkFlash": {
      "shaderName": "Plasma/Glow",
      "renderQueue": -1,
      "props": null
    },
    "FireWorkFlare0": {
      "shaderName": "Plasma/Glow",
      "renderQueue": -1,
      "props": null
    },
    "FireworkFlash0": {
      "shaderName": "Plasma/Glow",
      "renderQueue": -1,
      "props": null
    },
    "FireWorkFlare1": {
      "shaderName": "Plasma/Glow",
      "renderQueue": -1,
      "props": null
    },
    "FireworkFlash1": {
      "shaderName": "Plasma/Glow",
      "renderQueue": -1,
      "props": null
    },
    "m_7310": {
      "shaderName": "Plasma/Default, alpha blend",
      "renderQueue": 3020,
      "props": null
    }
  },
  "layers": {}
}