{
  "load": true,
  "objOverrides": {
    "RTCaveOpeningProj01": {
      "enableSelf": true,
      "enableDraw": true,
      "enablePhys": true,
      "enableLight": true,
      "enableAnim": true,
      "enableAudio": true,
      "lightOverride": {
        "range": -1.0,
        "intensity": -1.0,
        "shadows": false,
        "shadowStrength": 1.0,
        "layers": 1024
      },
      "meshRendererOverride": null
    },
    "RTCaveOpeningProj02": {
      "enableSelf": true,
      "enableDraw": true,
      "enablePhys": true,
      "enableLight": true,
      "enableAnim": true,
      "enableAudio": true,
      "lightOverride": {
        "range": -1.0,
        "intensity": -1.0,
        "shadows": false,
        "shadowStrength": 1.0,
        "layers": 1024
      },
      "meshRendererOverride": null
    },
    "RTCaveOpeningProj03": {
      "enableSelf": true,
      "enableDraw": true,
      "enablePhys": true,
      "enableLight": true,
      "enableAnim": true,
      "enableAudio": true,
      "lightOverride": {
        "range": -1.0,
        "intensity": -1.0,
        "shadows": false,
        "shadowStrength": 1.0,
        "layers": 1024
      },
      "meshRendererOverride": null
    },
    "RTWaterFallLight01": {
      "enableSelf": true,
      "enableDraw": true,
      "enablePhys": true,
      "enableLight": true,
      "enableAnim": true,
      "enableAudio": true,
      "lightOverride": {
        "range": 30.0,
        "intensity": -1.0,
        "shadows": false,
        "shadowStrength": 1.0,
        "layers": -1025
      },
      "meshRendererOverride": null
    },
    "RTDir-SunMain": {
      "enableSelf": true,
      "enableDraw": true,
      "enablePhys": true,
      "enableLight": true,
      "enableAnim": true,
      "enableAudio": true,
      "lightOverride": {
        "range": -1.0,
        "intensity": -1.0,
        "shadows": true,
        "shadowStrength": 0.7,
        "layers": -1025
      },
      "meshRendererOverride": null
    },
    "RTDir-MoonMain": {
      "enableSelf": true,
      "enableDraw": true,
      "enablePhys": true,
      "enableLight": true,
      "enableAnim": true,
      "enableAudio": true,
      "lightOverride": {
        "range": -1.0,
        "intensity": -1.0,
        "shadows": true,
        "shadowStrength": 0.7,
        "layers": -1025
      },
      "meshRendererOverride": null
    },
    "RTDir-MoonAmb01": {
      "enableSelf": true,
      "enableDraw": true,
      "enablePhys": true,
      "enableLight": true,
      "enableAnim": true,
      "enableAudio": true,
      "lightOverride": {
        "range": -1.0,
        "intensity": -1.0,
        "shadows": false,
        "shadowStrength": -1.0,
        "layers": -1025
      },
      "meshRendererOverride": null
    },
    "RTDir-SunAmb01": {
      "enableSelf": true,
      "enableDraw": true,
      "enablePhys": true,
      "enableLight": true,
      "enableAnim": true,
      "enableAudio": true,
      "lightOverride": {
        "range": -1.0,
        "intensity": -1.0,
        "shadows": false,
        "shadowStrength": -1.0,
        "layers": -1025
      },
      "meshRendererOverride": null
    },
    "RTDir-SunAmb02": {
      "enableSelf": true,
      "enableDraw": true,
      "enablePhys": true,
      "enableLight": true,
      "enableAnim": true,
      "enableAudio": true,
      "lightOverride": {
        "range": -1.0,
        "intensity": -1.0,
        "shadows": false,
        "shadowStrength": -1.0,
        "layers": -1025
      },
      "meshRendererOverride": null
    },
    "RTDir-MoonShadow": {
      "enableSelf": false,
      "enableDraw": true,
      "enablePhys": true,
      "enableLight": true,
      "enableAnim": true,
      "enableAudio": true,
      "lightOverride": null,
      "meshRendererOverride": null
    },
    "CanyonMain01": {
      "enableSelf": true,
      "enableDraw": true,
      "enablePhys": true,
      "enableLight": true,
      "enableAnim": true,
      "enableAudio": true,
      "lightOverride": null,
      "meshRendererOverride": {
        "castShadows": 2
      }
    },
    "CanyonMain02": {
      "enableSelf": true,
      "enableDraw": true,
      "enablePhys": true,
      "enableLight": true,
      "enableAnim": true,
      "enableAudio": true,
      "lightOverride": null,
      "meshRendererOverride": {
        "castShadows": 2
      }
    },
    "WaterSurfaceFake01": {
      "enableSelf": false,
      "enableDraw": true,
      "enablePhys": true,
      "enableLight": true,
      "enableAnim": true,
      "enableAudio": true,
      "lightOverride": null,
      "meshRendererOverride": null
    },
    "WaterSurfaceFake02": {
      "enableSelf": false,
      "enableDraw": true,
      "enablePhys": true,
      "enableLight": true,
      "enableAnim": true,
      "enableAudio": true,
      "lightOverride": null,
      "meshRendererOverride": null
    },
    "WaterSurfaceFake03": {
      "enableSelf": false,
      "enableDraw": true,
      "enablePhys": true,
      "enableLight": true,
      "enableAnim": true,
      "enableAudio": true,
      "lightOverride": null,
      "meshRendererOverride": null
    }
  },
  "matOverrides": {
    "StoneBuilding_1": {
      "shaderName": "Plasma/Default",
      "renderQueue": -1
    },
    "StoneBuilding_3": {
      "shaderName": "Plasma/Default, overlay uv0 blended uv1 u",
      "renderQueue": -1
    },
    "WoodSlats_1": {
      "shaderName": "Plasma/Default",
      "renderQueue": -1
    },
    "WoodSlats_3": {
      "shaderName": "Plasma/Default, overlay uv0 blended uv1 u",
      "renderQueue": -1
    },
    "Rope_1": {
      "shaderName": "Plasma/Default",
      "renderQueue": -1
    },
    "Rope_3": {
      "shaderName": "Plasma/Default",
      "renderQueue": -1
    },
    "m_11179": {
      "shaderName": "Plasma/Default",
      "renderQueue": -1
    },
    "m_14151": {
      "shaderName": "Plasma/Default",
      "renderQueue": -1
    },
    "WoodSlats": {
      "shaderName": "Plasma/Default",
      "renderQueue": -1
    },
    "Rope": {
      "shaderName": "Plasma/Default",
      "renderQueue": -1
    },
    "birdEye": {
      "shaderName": "Plasma/Default",
      "renderQueue": -1
    },
    "wing": {
      "shaderName": "Plasma/Default",
      "renderQueue": -1
    },
    "m_27": {
      "shaderName": "Plasma/Default",
      "renderQueue": -1
    },
    "m_55": {
      "shaderName": "Plasma/Default",
      "renderQueue": -1
    },
    "Bone1": {
      "shaderName": "Plasma/Default",
      "renderQueue": -1
    },
    "DirtDecal": {
      "shaderName": "Plasma/Decal/Zoffset",
      "renderQueue": 2460
    },
    "LechugillaWeed": {
      "shaderName": "Plasma/Default",
      "renderQueue": -1
    },
    "PondRockDECAL": {
      "shaderName": "Plasma/Decal/Default",
      "renderQueue": -1
    },
    "Rock": {
      "shaderName": "Plasma/Default, overlay uv0",
      "renderQueue": -1
    },
    "Shadow-VertAlpha": {
      "shaderName": "Plasma/Default, alpha blend, VCol for RT",
      "renderQueue": -1
    },
    "m_14137_2": {
      "shaderName": "Plasma/Default",
      "renderQueue": -1
    },
    "m_14137_3": {
      "shaderName": "Plasma/Default",
      "renderQueue": -1
    },
    "Dirt": {
      "shaderName": "Plasma/Default",
      "renderQueue": -1
    },
    "Mud": {
      "shaderName": "Plasma/Default",
      "renderQueue": -1
    },
    "Fumerol_DECAL": {
      "shaderName": "Plasma/Decal/Zoffset",
      "renderQueue": 2430
    },
    "Fumerol": {
      "shaderName": "Plasma/Default",
      "renderQueue": -1
    },
    "Fumerol_Trim": {
      "shaderName": "Plasma/Decal/Zoffset",
      "renderQueue": -1
    },
    "Fumerol_Trim0": {
      "shaderName": "Plasma/Decal/Zoffset",
      "renderQueue": -1
    },
    "LavaEdge": {
      "shaderName": "Plasma/Decal/Default",
      "renderQueue": -1
    },
    "Shadow-Gradient": {
      "shaderName": "Plasma/Default, alpha blend, VCol for RT",
      "renderQueue": -1
    },
    "PlantLeafs": {
      "shaderName": "Plasma/Default, alpha test (double sided), less intense, overlay uv1",
      "renderQueue": -1
    },
    "MudDecal": {
      "shaderName": "Plasma/Decal/Default",
      "renderQueue": -1
    },
    "Black": {
      "shaderName": "Plasma/Default, alpha blend",
      "renderQueue": -1
    },
    "Silt": {
      "shaderName": "Plasma/Default",
      "renderQueue": -1
    },
    "DirtDecal0": {
      "shaderName": "Plasma/Decal/Default",
      "renderQueue": -1
    },
    "Fumerol_DECAL0": {
      "shaderName": "Plasma/Decal/Zoffset",
      "renderQueue": -1
    },
    "StoneBuilding_10": {
      "shaderName": "Plasma/Default",
      "renderQueue": -1
    },
    "WoodSlats_10": {
      "shaderName": "Plasma/Default",
      "renderQueue": -1
    },
    "StoneBuilding_31": {
      "shaderName": "Plasma/Default",
      "renderQueue": -1
    },
    "WoodSlats_31": {
      "shaderName": "Plasma/Default",
      "renderQueue": -1
    },
    "WoodSlats0": {
      "shaderName": "Plasma/Default",
      "renderQueue": -1
    },
    "Shadow": {
      "shaderName": "Plasma/Default, alpha blend, VCol for RT",
      "renderQueue": -1
    },
    "Plant1": {
      "shaderName": "Plasma/Default, alpha test (double sided), less intense",
      "renderQueue": -1
    },
    "Plant2": {
      "shaderName": "Plasma/Default, alpha test (double sided), less intense",
      "renderQueue": -1
    },
    "Plant3": {
      "shaderName": "Plasma/Default, alpha test (double sided), less intense",
      "renderQueue": -1
    },
    "Fish_Luminous": {
      "shaderName": "Plasma/Default",
      "renderQueue": -1
    },
    "m_464": {
      "shaderName": "Plasma/Default",
      "renderQueue": -1
    },
    "m_465": {
      "shaderName": "Plasma/Default",
      "renderQueue": -1
    },
    "m_466": {
      "shaderName": "Plasma/Default",
      "renderQueue": -1
    },
    "LinkFromGallery": {
      "shaderName": "Plasma/Default",
      "renderQueue": -1
    },
    "GrassClump": {
      "shaderName": "Plasma/Default, alpha test (double sided), less intense",
      "renderQueue": -1
    },
    "SpottedHive": {
      "shaderName": "Plasma/Default, overlay uv1",
      "renderQueue": -1
    },
    "JCpalmGlow": {
      "shaderName": "Plasma/Ages/Personal/Hand glow",
      "renderQueue": -1
    },
    "JCpalmGlow6": {
      "shaderName": "Plasma/Ages/Personal/Hand glow",
      "renderQueue": -1
    },
    "JCpalmGlow5": {
      "shaderName": "Plasma/Ages/Personal/Hand glow",
      "renderQueue": -1
    },
    "JCpalmGlow4": {
      "shaderName": "Plasma/Ages/Personal/Hand glow",
      "renderQueue": -1
    },
    "JCpalmGlow3": {
      "shaderName": "Plasma/Ages/Personal/Hand glow",
      "renderQueue": -1
    },
    "JCpalmGlow2": {
      "shaderName": "Plasma/Ages/Personal/Hand glow",
      "renderQueue": -1
    },
    "JCpalmGlow1": {
      "shaderName": "Plasma/Ages/Personal/Hand glow",
      "renderQueue": -1
    },
    "JCpalmGlow0": {
      "shaderName": "Plasma/Ages/Personal/Hand glow",
      "renderQueue": -1
    },
    "JCpalmGlow20": {
      "shaderName": "Plasma/Ages/Personal/Hand glow",
      "renderQueue": -1
    },
    "JCpalmGlow27": {
      "shaderName": "Plasma/Ages/Personal/Hand glow",
      "renderQueue": -1
    },
    "JCpalmGlow26": {
      "shaderName": "Plasma/Ages/Personal/Hand glow",
      "renderQueue": -1
    },
    "JCpalmGlow25": {
      "shaderName": "Plasma/Ages/Personal/Hand glow",
      "renderQueue": -1
    },
    "JCpalmGlow24": {
      "shaderName": "Plasma/Ages/Personal/Hand glow",
      "renderQueue": -1
    },
    "JCpalmGlow23": {
      "shaderName": "Plasma/Ages/Personal/Hand glow",
      "renderQueue": -1
    },
    "JCpalmGlow22": {
      "shaderName": "Plasma/Ages/Personal/Hand glow",
      "renderQueue": -1
    },
    "JCpalmGlow21": {
      "shaderName": "Plasma/Ages/Personal/Hand glow",
      "renderQueue": -1
    },
    "JCpalmGlow30": {
      "shaderName": "Plasma/Ages/Personal/Hand glow",
      "renderQueue": -1
    },
    "JCpalmGlow37": {
      "shaderName": "Plasma/Ages/Personal/Hand glow",
      "renderQueue": -1
    },
    "JCpalmGlow36": {
      "shaderName": "Plasma/Ages/Personal/Hand glow",
      "renderQueue": -1
    },
    "JCpalmGlow35": {
      "shaderName": "Plasma/Ages/Personal/Hand glow",
      "renderQueue": -1
    },
    "JCpalmGlow34": {
      "shaderName": "Plasma/Ages/Personal/Hand glow",
      "renderQueue": -1
    },
    "JCpalmGlow33": {
      "shaderName": "Plasma/Ages/Personal/Hand glow",
      "renderQueue": -1
    },
    "JCpalmGlow32": {
      "shaderName": "Plasma/Ages/Personal/Hand glow",
      "renderQueue": -1
    },
    "JCpalmGlow31": {
      "shaderName": "Plasma/Ages/Personal/Hand glow",
      "renderQueue": -1
    },
    "JCloth": {
      "shaderName": "Plasma/Decal/Default",
      "renderQueue": -1
    },
    "LampPostGlare2": {
      "shaderName": "Plasma/Glow",
      "renderQueue": -1
    },
    "LampPostGlare3": {
      "shaderName": "Plasma/Glow",
      "renderQueue": -1
    },
    "LampPostGlare4": {
      "shaderName": "Plasma/Glow",
      "renderQueue": -1
    },
    "LampPostGlare": {
      "shaderName": "Plasma/Glow",
      "renderQueue": -1
    },
    "LampPostGlare0": {
      "shaderName": "Plasma/Glow",
      "renderQueue": -1
    },
    "LampPostGlare1": {
      "shaderName": "Plasma/Glow",
      "renderQueue": -1
    },
    "LampPostGlare5": {
      "shaderName": "Plasma/Glow",
      "renderQueue": -1
    },
    "LampPostGlare6": {
      "shaderName": "Plasma/Glow",
      "renderQueue": -1
    },
    "LampPostGlare7": {
      "shaderName": "Plasma/Glow",
      "renderQueue": -1
    },
    "LampPostGlare8": {
      "shaderName": "Plasma/Glow",
      "renderQueue": -1
    },
    "LampPostGlare9": {
      "shaderName": "Plasma/Glow",
      "renderQueue": -1
    },
    "LampPostGlare10": {
      "shaderName": "Plasma/Glow",
      "renderQueue": -1
    },
    "Lava": {
      "shaderName": "Plasma/Animated",
      "renderQueue": -1
    },
    "m_28": {
      "shaderName": "Plasma/Default",
      "renderQueue": -1
    },
    "m_49": {
      "shaderName": "Plasma/Default",
      "renderQueue": -1
    },
    "maintainerMarkerBrackets": {
      "shaderName": "Plasma/Default",
      "renderQueue": -1
    },
    "m_20": {
      "shaderName": "Plasma/Default",
      "renderQueue": -1
    },
    "m_21": {
      "shaderName": "Plasma/Default",
      "renderQueue": -1
    },
    "m_31": {
      "shaderName": "Plasma/Default",
      "renderQueue": -1
    },
    "m_44": {
      "shaderName": "Plasma/Default",
      "renderQueue": -1
    },
    "MaintainersMarkerShadow": {
      "shaderName": "Plasma/Decal/Default",
      "renderQueue": -1
    },
    "Moon01": {
      "shaderName": "Plasma/Glow",
      "renderQueue": -1
    },
    "Moon02": {
      "shaderName": "Plasma/Glow",
      "renderQueue": -1
    },
    "m_147": {
      "shaderName": "Plasma/Default",
      "renderQueue": -1
    },
    "m_159": {
      "shaderName": "Plasma/Default",
      "renderQueue": -1
    },
    "7_-_Default5": {
      "shaderName": "Plasma/Default",
      "renderQueue": -1
    },
    "m_4640": {
      "shaderName": "Plasma/Default",
      "renderQueue": -1
    },
    "m_4650": {
      "shaderName": "Plasma/Default",
      "renderQueue": -1
    },
    "m_4660": {
      "shaderName": "Plasma/Default",
      "renderQueue": -1
    },
    "m_10933": {
      "shaderName": "Plasma/Default",
      "renderQueue": -1
    },
    "Helmet": {
      "shaderName": "Plasma/Default",
      "renderQueue": -1
    },
    "Rock_Slide_1": {
      "shaderName": "Plasma/Default",
      "renderQueue": -1
    },
    "Rock_Slide_3": {
      "shaderName": "Plasma/Ages/Gira/Rock_Slide_3",
      "renderQueue": -1
    },
    "Shape02_DefMat": {
      "shaderName": "Plasma/Default",
      "renderQueue": -1
    },
    "Canyon_sky2": {
      "shaderName": "Plasma/Ages/Gira/Canyon_sky2",
      "renderQueue": -1
    },
    "Sun": {
      "shaderName": "Plasma/Glow",
      "renderQueue": 2800
    },
    "ThornyVine": {
      "shaderName": "Plasma/Default, alpha test (double sided), less intense",
      "renderQueue": -1
    },
    "BackDropNEW": {
      "shaderName": "Plasma/Default, alpha blend",
      "renderQueue": -1
    },
    "WaterfallSpread": {
      "shaderName": "Plasma/Ages/Gira/WaterfallSpread",
      "renderQueue": -1
    },
    "WaterfallSpreadSeamDecal": {
      "shaderName": "Plasma/Ages/Gira/WaterfallSpread",
      "renderQueue": -1
    },
    "Waterfall": {
      "shaderName": "Plasma/Ages/Gira/Waterfall",
      "renderQueue": -1
    },
    "Waterfall0": {
      "shaderName": "Plasma/Ages/Gira/Waterfall",
      "renderQueue": -1
    },
    "River-Flow": {
      "shaderName": "Plasma/Ages/Gira/River-flow",
      "renderQueue": -1
    },
    "Water-TINT-NoAnim": {
      "shaderName": "Plasma/Default",
      "renderQueue": -1
    },
    "RipplesDecal-Bump!": {
      "shaderName": "Plasma/Default",
      "renderQueue": -1
    },
    "RipplesDecal-Bump!0": {
      "shaderName": "Plasma/Default",
      "renderQueue": -1
    },
    "Water-TINT-NoAnim0": {
      "shaderName": "Plasma/Default",
      "renderQueue": -1
    },
    "RipplesDecal-Bump!1": {
      "shaderName": "Plasma/Default",
      "renderQueue": -1
    },
    "Water-TINT-NoAnim1": {
      "shaderName": "Plasma/Default",
      "renderQueue": -1
    },
    "FakeWater": {
      "shaderName": "Plasma/Default",
      "renderQueue": -1
    },
    "FakeRipples": {
      "shaderName": "Plasma/Default",
      "renderQueue": -1
    },
    "StoneBuilding_30": {
      "shaderName": "Plasma/Default",
      "renderQueue": -1
    },
    "WoodSlats_30": {
      "shaderName": "Plasma/Default",
      "renderQueue": -1
    },
    "Rope_30": {
      "shaderName": "Plasma/Default",
      "renderQueue": -1
    },
    "Rope_31": {
      "shaderName": "Plasma/Default",
      "renderQueue": -1
    },
    "m_4651": {
      "shaderName": "Plasma/Default",
      "renderQueue": -1
    },
    "m_15844": {
      "shaderName": "Plasma/Decal/Default",
      "renderQueue": -1
    },
    "StoneFlare01": {
      "shaderName": "Plasma/Glow",
      "renderQueue": -1
    }
  },
  "layers": {
    "10": [
      "CaveBone01",
      "CaveBone02",
      "CaveBone03",
      "CaveBone04",
      "CaveBone05",
      "CaveBone06",
      "CaveBone07",
      "CaveBone08",
      "CaveBone09",
      "CaveBone10",
      "CaveBone11",
      "CaveBone12",
      "CaveBone13",
      "CaveBone14",
      "CaveBone15",
      "CaveBone16",
      "CaveBone17",
      "CaveBone18",
      "CaveBone19",
      "CaveBoneTrim01",
      "CaveBoneTrim02",
      "CaveBoneTrim03",
      "CaveBoneTrim04",
      "CaveBoneTrim05",
      "CaveBoneTrim06",
      "CaveBoneTrim07",
      "CaveBoneTrim08",
      "CaveBoneTrim09",
      "CaveBoneTrim10",
      "CaveBoneTrim11",
      "CaveBoneTrim12",
      "CaveBoneTrim13",
      "CaveBoneTrim14",
      "CaveBoneTrim15",
      "CaveBoneTrim16",
      "CaveBoneTrim17",
      "CaveBoneTrim18",
      "CaveBoneTrim19",
      "CaveChamber01",
      "CaveChamber02",
      "CaveChamber03",
      "CaveChamber04",
      "CaveChamber05",
      "CaveDirtEdge01",
      "CaveDirtEdge02",
      "CaveDirtEdge03",
      "CaveDirtEdge04",
      "CaveDirtEdge05",
      "CaveDirtEdge06",
      "CaveDirtEdge07",
      "CaveDirtEdge08",
      "CaveDirtEdge09",
      "CaveDirtEdge10",
      "CaveDirtEdge11",
      "CaveDirtEdge12",
      "CaveDirtEdge13",
      "CaveDirtEdge14",
      "CaveDirtEdge15",
      "CaveDirtEdge16",
      "CaveDirtEdge17",
      "CaveDirtEdge18",
      "CaveDoor01",
      "CaveDoorFrame01",
      "CaveDoorShadowDecal01",
      "CaveDoorSwitch01",
      "CavePockMarkDecal01",
      "CavePockMarkDecal02",
      "CavePockMarkDecal03",
      "CavePockMarkDecal04",
      "CavePockMarkDecal05",
      "CavePropA01",
      "CavePropA02",
      "CavePropA03",
      "CavePropA04",
      "CavePropA05",
      "CavePropA06",
      "CavePropA07",
      "CavePropA08",
      "CavePropA09",
      "CavePropA10",
      "CavePropA11",
      "CavePropA12",
      "CavePropB01",
      "CavePropB02",
      "CavePropB03",
      "CavePropB04",
      "CavePropB05",
      "CavePropB06",
      "CavePropB07",
      "CavePropB08",
      "CavePropB09",
      "CavePropB10",
      "CavePropB11",
      "CavePropB12",
      "CavePropB13",
      "CavePropB14",
      "CavePropB15",
      "CavePropB16",
      "CavePropB17",
      "CavePropB18",
      "CavePropBasket01",
      "CavePropBasket02",
      "CavePropBasket03",
      "CavePropBasket04",
      "CavePropBasket05",
      "CavePropBasket06",
      "CavePropBasket07",
      "CavePropBasket08",
      "CavePropBasket09",
      "CavePropBasket10",
      "CavePropBasket11",
      "CavePropBasket12",
      "CavePropC01",
      "CavePropC02",
      "CavePropC03",
      "CavePropC04",
      "CavePropC05",
      "CavePropC06",
      "CavePropC07",
      "CavePropC08",
      "CavePropC09",
      "CavePropC10",
      "CavePropC11",
      "CavePropC12",
      "CavePropC13",
      "CavePropC14",
      "CavePropC15",
      "CavePropC16",
      "CavePropC17",
      "CavePropD01",
      "CavePropD02",
      "CavePropD03",
      "CavePropD04",
      "CavePropD05",
      "CavePropD06",
      "CavePropD07",
      "CavePropD08",
      "CavePropD09",
      "CavePropD10",
      "CavePropD11",
      "CavePropD12",
      "CavePropD13",
      "CavePropD14",
      "CavePropD15",
      "CavePropD16",
      "CavePropD17",
      "CavePropD18",
      "CavePropD19",
      "CavePropD20",
      "CavePropD21",
      "CavePropD22",
      "CavePropD23",
      "CavePropD24",
      "CavePropD25",
      "CavePropE01",
      "CavePropE02",
      "CavePropE03",
      "CavePropE04",
      "CavePropE05",
      "CavePropE06",
      "CavePropE07",
      "CavePropE08",
      "CavePropE09",
      "CavePropE10",
      "CavePropE11",
      "CavePropE12",
      "CavePropE13",
      "CavePropE14",
      "CavePropE15",
      "CavePropE16",
      "CavePropE17",
      "CavePropE18",
      "CavePropE19",
      "CavePropE20",
      "CavePropE21",
      "CavePropF01",
      "CavePropF02",
      "CavePropF03",
      "CavePropF04",
      "CavePropF05",
      "CavePropF06",
      "CaveTunnel01",
      "CaveTunnel02",
      "CaveTunnel03",
      "JCloth-giraJCloth05",
      "LampPost01",
      "LampPost02",
      "LampPost03",
      "LampPost04",
      "LampPostGlarePlane01",
      "LampPostGlarePlane02",
      "LampPostGlarePlane03",
      "LampPostGlarePlane04",
      "LampPostGlarePlane05",
      "LampPostGlarePlane06",
      "LampPostGlarePlane07",
      "LampPostGlarePlane08",
      "LampPostGlarePlane09",
      "LampPostGlarePlane10",
      "LampPostGlarePlane11",
      "LampPostGlarePlane12",
      "LampPostTrim01",
      "LampPostTrim02",
      "LampPostTrim03",
      "LampPostTrim04",
      "PithHelmet"
    ]
  }
}