{
    "name": "UPlasma",
    "references": [
        "Unity.Postprocessing.Runtime",
        "MIConvexHull"
    ],
    "optionalUnityReferences": [],
    "includePlatforms": [],
    "excludePlatforms": [],
    "allowUnsafeCode": false,
    "overrideReferences": false,
    "precompiledReferences": [],
    "autoReferenced": true,
    "defineConstraints": []
}